Lab2/simulation/qsim/Lab2.msim.vcd
$comment
	File created using the following command:
		vcd file Lab2.msim.vcd -direction
$end
$date
	Wed Mar 11 20:48:19 2020
$end
$version
	ModelSim Version 10.5b
$end
$timescale
	1ps
$end

$scope module Lab2_vlg_vec_tst $end
$var reg 1 ! CLOCK $end
$var reg 1 " DIN0 $end
$var reg 1 # DIN1 $end
$var reg 1 $ FETCH $end
$var reg 1 % HIGH $end
$var reg 1 & LDSBR $end
$var reg 1 ' LOW $end
$var reg 1 ( SAR0 $end
$var reg 1 ) SAR1 $end
$var reg 1 * STORE $end
$var wire 1 + A2 $end
$var wire 1 , B2 $end
$var wire 1 - Q00 $end
$var wire 1 . Q01 $end
$var wire 1 / Q02 $end
$var wire 1 0 Q03 $end
$var wire 1 1 Q10 $end
$var wire 1 2 Q11 $end
$var wire 1 3 Q12 $end
$var wire 1 4 Q13 $end
$var wire 1 5 SBR0 $end
$var wire 1 6 SBR1 $end
$var wire 1 7 select2 $end

$scope module i1 $end
$var wire 1 8 gnd $end
$var wire 1 9 vcc $end
$var wire 1 : unknown $end
$var tri1 1 ; devclrn $end
$var tri1 1 < devpor $end
$var tri1 1 = devoe $end
$var wire 1 > SBR1~output_o $end
$var wire 1 ? SBR0~output_o $end
$var wire 1 @ Q00~output_o $end
$var wire 1 A Q01~output_o $end
$var wire 1 B Q02~output_o $end
$var wire 1 C Q03~output_o $end
$var wire 1 D Q10~output_o $end
$var wire 1 E Q11~output_o $end
$var wire 1 F Q12~output_o $end
$var wire 1 G Q13~output_o $end
$var wire 1 H select2~output_o $end
$var wire 1 I A2~output_o $end
$var wire 1 J B2~output_o $end
$var wire 1 K CLOCK~input_o $end
$var wire 1 L CLOCK~inputclkctrl_outclk $end
$var wire 1 M LDSBR~input_o $end
$var wire 1 N DIN1~input_o $end
$var wire 1 O inst4|10~0_combout $end
$var wire 1 P LOW~input_o $end
$var wire 1 Q STORE~input_o $end
$var wire 1 R HIGH~input_o $end
$var wire 1 S SAR0~input_o $end
$var wire 1 T SAR1~input_o $end
$var wire 1 U inst6|inst3|94~combout $end
$var wire 1 V inst6|inst3|26~0_combout $end
$var wire 1 W inst6|inst3|86~combout $end
$var wire 1 X inst6|inst3|86~clkctrl_outclk $end
$var wire 1 Y inst6|inst3|26~q $end
$var wire 1 Z inst6|inst3|93~combout $end
$var wire 1 [ inst6|inst3|25~0_combout $end
$var wire 1 \ inst6|inst3|25~q $end
$var wire 1 ] inst6|inst|4~0_combout $end
$var wire 1 ^ inst6|inst11|4~0_combout $end
$var wire 1 _ inst1|37~0_combout $end
$var wire 1 ` HIGH~inputclkctrl_outclk $end
$var wire 1 a inst1|41~q $end
$var wire 1 b inst1|36~0_combout $end
$var wire 1 c inst1|40~q $end
$var wire 1 d inst1|35~0_combout $end
$var wire 1 e inst1|39~q $end
$var wire 1 f inst1|34~0_combout $end
$var wire 1 g inst1|38~q $end
$var wire 1 h FETCH~input_o $end
$var wire 1 i inst4|10~1_combout $end
$var wire 1 j inst4|10~2_combout $end
$var wire 1 k inst4|10~3_combout $end
$var wire 1 l inst4|10~4_combout $end
$var wire 1 m inst4|10~5_combout $end
$var wire 1 n inst2|10~q $end
$var wire 1 o inst|37~0_combout $end
$var wire 1 p inst|41~q $end
$var wire 1 q inst|36~0_combout $end
$var wire 1 r inst|40~q $end
$var wire 1 s inst|35~0_combout $end
$var wire 1 t inst|39~q $end
$var wire 1 u inst|34~0_combout $end
$var wire 1 v inst|38~q $end
$var wire 1 w DIN0~input_o $end
$var wire 1 x inst4|9~0_combout $end
$var wire 1 y inst4|9~1_combout $end
$var wire 1 z inst2|9~q $end
$var wire 1 { inst6|inst|4~1_combout $end
$upscope $end
$upscope $end
$enddefinitions $end
#0
$dumpvars
1!
0"
1#
0$
1%
1&
0'
0(
0)
0*
1+
1,
0-
0.
0/
00
01
02
03
04
05
06
07
08
19
x:
1;
1<
1=
0>
0?
0@
0A
0B
0C
0D
0E
0F
0G
0H
1I
1J
1K
1L
1M
1N
1O
0P
0Q
1R
0S
0T
1U
1V
0W
0X
0Y
0Z
1[
0\
1]
0^
0_
1`
0a
0b
0c
0d
0e
0f
0g
0h
1i
0j
1k
0l
1m
0n
0o
0p
0q
0r
0s
0t
0u
0v
0w
0x
0y
0z
0{
$end
#5000
0!
0K
0L
0U
#10000
1!
1K
1L
1U
1Y
1n
1>
0k
0]
16
0V
#15000
0!
0K
0L
1Z
0U
#20000
1!
1K
1L
0Z
1U
1\
0Y
1k
0[
1V
#25000
0!
0K
0L
0U
#30000
0&
1!
1K
1L
0M
0I
0+
1U
1Y
0k
0V
#35000
0!
0K
0L
1Z
0U
#40000
0#
1&
1!
0N
1K
1L
1M
1I
0O
0Z
1+
1U
0m
0\
0Y
1]
1k
1[
1V
#45000
0!
0K
0L
0U
#50000
1!
1K
1L
1U
1Y
0n
0>
0k
0]
06
0V
#55000
0!
0K
0L
1Z
0U
#60000
1!
1K
1L
0Z
1U
1\
0Y
1k
0[
1V
#65000
0!
0K
0L
0U
#70000
0&
1!
1K
1L
0M
0I
0+
1U
1Y
0k
0V
#75000
0!
0K
0L
1Z
0U
#80000
1"
1&
1!
1w
1K
1L
1M
1I
1x
0Z
1+
1U
1y
0\
0Y
1]
1k
1[
1V
#85000
0!
0K
0L
0U
#90000
1!
1K
1L
1U
1Y
1z
1?
0k
0]
15
0V
#95000
0!
0K
0L
1Z
0U
#100000
1!
1K
1L
0Z
1U
1\
0Y
1k
0[
1V
#105000
0!
0K
0L
0U
#110000
0&
1!
1K
1L
0M
0I
0+
1U
1Y
0k
0V
#115000
0!
0K
0L
1Z
0U
#120000
1#
1&
1!
1N
1K
1L
1M
1I
1O
0Z
1+
1U
1m
0\
0Y
1]
1k
1[
1V
#125000
0!
0K
0L
0U
#130000
1!
1K
1L
1U
1Y
1n
1>
0k
0]
16
0V
#135000
0!
0K
0L
1Z
0U
#140000
1!
1K
1L
0Z
1U
1\
0Y
1k
0[
1V
#145000
0!
0K
0L
0U
#150000
0&
1!
1K
1L
0M
0I
0+
1U
1Y
0k
0V
#155000
0!
0K
0L
1Z
0U
#160000
0"
0#
1!
0w
0N
1K
1L
0Z
1U
0\
0Y
1]
1k
1[
1V
#165000
0!
0K
0L
0U
#170000
1!
1K
1L
1U
1Y
0k
0]
0V
#175000
0!
0K
0L
1Z
0U
#180000
1!
1K
1L
0Z
1U
1\
0Y
1k
0[
1V
#185000
0!
0K
0L
0U
#190000
1(
1)
1!
1S
1T
1K
1L
0k
1U
1Y
1k
1]
0V
#195000
0!
0K
0L
1Z
0U
#200000
1*
1!
1Q
1K
1L
0Z
1^
1U
1H
17
1o
1_
0\
0Y
0]
0k
1[
1V
0^
0H
07
0o
0_
#205000
0!
0K
0L
0U
#210000
1!
1K
1L
1U
1Y
1k
0V
#215000
0!
0K
0L
1Z
0U
#220000
1!
1K
1L
0Z
1U
1\
0Y
0k
0[
1V
#225000
0!
0K
0L
0U
#230000
1!
1K
1L
1U
1Y
1k
1]
0V
1^
1H
17
1o
1_
#235000
0!
0K
0L
1Z
0U
#240000
0*
1!
0Q
1K
1L
0Z
0^
1U
0H
07
0o
0_
0\
0Y
1p
1a
1D
1@
0]
0k
1-
11
1[
1V
1q
1b
#245000
0!
0K
0L
0U
#250000
1&
1"
1!
1w
1K
1L
1M
1I
0O
1+
1U
0m
1Y
1r
0p
1c
0a
0D
1E
0@
1A
1k
1.
0-
12
01
0V
1s
0q
1d
0b
#255000
0!
0K
0L
1Z
0U
#260000
1!
1K
1L
0Z
1U
1\
0Y
1t
0r
0n
1e
0c
0E
1F
0>
0A
1B
0k
1/
0.
06
13
02
0[
1V
1u
0s
1f
0d
#265000
0!
0K
0L
0U
#270000
1!
1K
1L
1U
1Y
1v
0t
1g
0e
0F
1G
0B
1C
1k
1]
10
0/
14
03
0V
1o
0u
1_
0f
#275000
0!
0K
0L
1Z
0U
#280000
0)
0&
1!
0T
1K
1L
0M
0I
0]
0Z
0+
1U
0\
0Y
0v
1p
0g
1a
1D
0G
1@
0C
0k
00
1-
04
11
1[
1V
0o
1q
0_
1b
#285000
0!
0K
0L
0U
#290000
1*
0"
1!
1Q
0w
1K
1L
1U
1Y
1r
0p
1c
0a
0D
1E
0@
1A
1k
1]
1.
0-
12
01
0V
1s
0q
1d
0b
1^
1H
17
1o
#295000
0!
0K
0L
1Z
0U
#300000
1!
1K
1L
0Z
1U
1\
0Y
1t
0r
1p
1e
0c
0E
1F
1@
0A
1B
0]
0k
1/
0.
1-
13
02
0[
1V
1u
0s
1q
1f
0d
0^
0H
07
0o
#305000
0!
0K
0L
0U
#310000
1!
1K
1L
1U
1Y
1v
0t
1r
0p
1g
0e
0F
1G
0@
1A
0B
1C
1k
10
0/
1.
0-
14
03
0V
1o
0u
1s
0q
1_
0f
#315000
0!
0K
0L
1Z
0U
#320000
1!
1K
1L
0Z
1U
0\
0Y
0v
1t
0r
1p
0g
1a
1D
0G
1@
0A
1B
0C
0k
00
1/
0.
1-
04
11
1[
1V
0o
1u
0s
1q
0_
1b
#325000
0!
0K
0L
0U
#330000
0*
1!
0Q
1K
1L
1U
1Y
1v
0t
1r
0p
1c
0a
0D
1E
0@
1A
0B
1C
1k
1]
10
0/
1.
0-
12
01
0V
1o
0u
1s
0q
1d
0b
#335000
0!
0K
0L
1Z
0U
#340000
1&
1!
1K
1L
1M
1I
0Z
0x
1+
1U
0y
1\
0Y
0v
1t
0r
1p
1e
0c
0E
1F
1@
0A
1B
0C
0]
0k
00
1/
0.
1-
13
02
0[
1V
0o
1u
0s
1q
1f
0d
#345000
0!
0K
0L
0U
#350000
1!
1K
1L
1U
1Y
0z
1v
0t
1r
0p
1g
0e
0F
1G
0@
1A
0B
1C
0?
1k
05
10
0/
1.
0-
14
03
0V
1o
0u
1s
0q
1_
0f
#355000
0!
0K
0L
1Z
0U
#360000
1!
1K
1L
0Z
1U
0\
0Y
0v
1t
0r
1p
0g
1a
1D
0G
1@
0A
1B
0C
0k
00
1/
0.
1-
04
11
1[
1V
0o
1u
0s
1q
0_
1b
#365000
0!
0K
0L
0U
#370000
0(
0&
1!
0S
1K
1L
0M
0I
1k
1]
0+
1U
1Y
1v
0t
1r
0p
1c
0a
0D
1E
0@
1A
0B
1C
0k
0]
10
0/
1.
0-
12
01
0V
1o
0u
1s
0q
1d
0b
#375000
0!
0K
0L
1Z
0U
#380000
1*
1!
1Q
1K
1L
0Z
1U
1\
0Y
0v
1t
0r
1p
1e
0c
0E
1F
1@
0A
1B
0C
1k
00
1/
0.
1-
13
02
0[
1V
0o
1u
0s
1q
1f
0d
#385000
0!
0K
0L
0U
#390000
1!
1K
1L
1U
1Y
1v
0t
1r
0p
1g
0e
0F
1G
0@
1A
0B
1C
0k
10
0/
1.
0-
14
03
0V
1o
0u
1s
0q
1_
0f
#395000
0!
0K
0L
1Z
0U
#400000
1!
1K
1L
0Z
1U
0\
0Y
0v
1t
0r
1p
0g
1a
1D
0G
1@
0A
1B
0C
1]
1k
00
1/
0.
1-
04
11
1[
1V
0o
1u
0s
1q
0_
1b
1^
1H
17
#405000
0!
0K
0L
0U
#410000
1!
1K
1L
1U
1Y
1v
0t
1r
0p
1c
0a
0D
1E
0@
1A
0B
1C
0k
0]
10
0/
1.
0-
12
01
0V
0u
1s
0q
1d
0b
0^
0H
07
1o
#415000
0!
0K
0L
1Z
0U
#420000
0*
1!
0Q
1K
1L
0Z
1U
1\
0Y
0v
1t
0r
1p
1e
0c
0E
1F
1@
0A
1B
0C
1k
00
1/
0.
1-
13
02
0[
1V
0o
1u
0s
1q
1f
0d
#425000
0!
0K
0L
0U
#430000
1#
1&
1!
1N
1K
1L
1M
1I
1O
1+
1U
1m
1Y
1v
0t
1r
0p
1g
0e
0F
1G
0@
1A
0B
1C
0k
10
0/
1.
0-
14
03
0V
1o
0u
1s
0q
1_
0f
#435000
0!
0K
0L
1Z
0U
#440000
1!
1K
1L
0Z
1U
0\
0Y
0v
1t
0r
1p
1n
0g
1a
1D
0G
1>
1@
0A
1B
0C
1]
1k
00
1/
0.
1-
16
04
11
1[
1V
0o
1u
0s
1q
0_
1b
#445000
0!
0K
0L
0U
#450000
1!
1K
1L
1U
1Y
1v
0t
1r
0p
1c
0a
0D
1E
0@
1A
0B
1C
0k
0]
10
0/
1.
0-
12
01
0V
1o
0u
1s
0q
1d
0b
#455000
0!
0K
0L
1Z
0U
#460000
1)
0&
1!
1T
1K
1L
0M
0I
0Z
0+
1U
1\
0Y
0v
1t
0r
1p
1e
0c
0E
1F
1@
0A
1B
0C
1]
1k
00
1/
0.
1-
13
02
0[
1V
0o
1u
0s
1q
1f
0d
#465000
0!
0K
0L
0U
#470000
1*
0#
1!
1Q
0N
1K
1L
1^
1U
1H
17
1_
1Y
1v
0t
1r
0p
1g
0e
0F
1G
0@
1A
0B
1C
0k
0]
10
0/
1.
0-
14
03
0V
0u
1s
0q
0f
0^
0H
07
1o
#475000
0!
0K
0L
1Z
0U
#480000
1!
1K
1L
0Z
1U
0\
0Y
0v
1t
0r
1p
0g
1a
1D
0G
1@
0A
1B
0C
1k
00
1/
0.
1-
04
11
1[
1V
0o
1u
0s
1q
0_
1b
#485000
0!
0K
0L
0U
#490000
1!
1K
1L
1U
1Y
1v
0t
1r
0p
1c
0a
0D
1E
0@
1A
0B
1C
0k
10
0/
1.
0-
12
01
0V
1o
0u
1s
0q
1d
0b
#495000
0!
0K
0L
1Z
0U
#500000
1!
1K
1L
0Z
1U
1\
0Y
0v
1t
0r
1p
1e
0c
0E
1F
1@
0A
1B
0C
1]
1k
00
1/
0.
1-
13
02
0[
1V
0o
1u
0s
1q
1f
0d
1^
1H
17
1_
#505000
0!
0K
0L
0U
#510000
0*
1!
0Q
1K
1L
0^
1U
0H
07
0_
1Y
1v
0t
1r
0p
1g
0e
1a
1D
0F
1G
0@
1A
0B
1C
0k
0]
10
0/
1.
0-
14
03
11
0V
1o
0u
1s
0q
1_
0f
1b
#515000
0!
0K
0L
1Z
0U
#520000
1!
1K
1L
0Z
1U
0\
0Y
0v
1t
0r
1p
0g
1c
1E
0G
1@
0A
1B
0C
1k
00
1/
0.
1-
04
12
1[
1V
0o
1u
0s
1q
0_
1d
#525000
0!
0K
0L
0U
#530000
1!
1K
1L
1U
1Y
1v
0t
1r
0p
1e
0a
0D
1F
0@
1A
0B
1C
0k
10
0/
1.
0-
13
01
0V
1o
0u
1s
0q
1f
0b
#535000
0!
0K
0L
1Z
0U
#540000
1!
1K
1L
0Z
1U
1\
0Y
0v
1t
0r
1p
1g
0c
0E
1G
1@
0A
1B
0C
1]
1k
00
1/
0.
1-
14
02
0[
1V
0o
1u
0s
1q
1_
0d
#545000
0!
0K
0L
0U
#550000
0)
1!
0T
1K
1L
0]
1U
1Y
1v
0t
1r
0p
0e
1a
1D
0F
0@
1A
0B
1C
0k
10
0/
1.
0-
03
11
0V
1o
0u
1s
0q
0f
1b
#555000
0!
0K
0L
1Z
0U
#560000
1!
1K
1L
0Z
1U
0\
0Y
0v
1t
0r
1p
0g
1c
1E
0G
1@
0A
1B
0C
1]
1k
00
1/
0.
1-
04
12
1[
1V
0o
1u
0s
1q
0_
1d
#565000
0!
0K
0L
0U
#570000
1!
1K
1L
1U
1Y
1v
0t
1r
0p
1e
0a
0D
1F
0@
1A
0B
1C
0k
0]
10
0/
1.
0-
13
01
0V
1o
0u
1s
0q
1f
0b
#575000
0!
0K
0L
1Z
0U
#580000
1!
1K
1L
0Z
1U
1\
0Y
0v
1t
0r
1p
1g
0c
0E
1G
1@
0A
1B
0C
1k
00
1/
0.
1-
14
02
0[
1V
0o
1u
0s
1q
1_
0d
#585000
0!
0K
0L
0U
#590000
1!
1K
1L
1U
1Y
1v
0t
1r
0p
0e
1a
1D
0F
0@
1A
0B
1C
0k
10
0/
1.
0-
03
11
0V
1o
0u
1s
0q
0f
1b
#595000
0!
0K
0L
1Z
0U
#600000
1!
1K
1L
0Z
1U
0\
0Y
0v
1t
0r
1p
0g
1c
1E
0G
1@
0A
1B
0C
1]
1k
00
1/
0.
1-
04
12
1[
1V
0o
1u
0s
1q
0_
1d
#605000
0!
0K
0L
0U
#610000
1!
1K
1L
1U
1Y
1v
0t
1r
0p
1e
0a
0D
1F
0@
1A
0B
1C
0k
0]
10
0/
1.
0-
13
01
0V
1o
0u
1s
0q
1f
0b
#615000
0!
0K
0L
1Z
0U
#620000
1!
1K
1L
0Z
1U
1\
0Y
0v
1t
0r
1p
1g
0c
0E
1G
1@
0A
1B
0C
1k
00
1/
0.
1-
14
02
0[
1V
0o
1u
0s
1q
1_
0d
#625000
0!
0K
0L
0U
#630000
1(
1)
1!
1S
1T
1K
1L
0k
1U
1Y
1v
0t
1r
0p
0e
1a
1D
0F
0@
1A
0B
1C
1k
1]
10
0/
1.
0-
03
11
0V
1o
0u
1s
0q
0f
1b
#635000
0!
0K
0L
1Z
0U
#640000
1$
1!
1h
1K
1L
1{
1j
0i
0Z
1U
0J
1l
0,
0m
1y
1m
0\
0Y
0v
1t
0r
1p
0g
1c
1E
0G
1@
0A
1B
0C
0l
0]
0k
00
1/
0.
1-
04
12
1[
1V
0y
0o
1u
0s
1q
0m
0_
1d
0{
1i
1J
1,
1m
#645000
0!
0K
0L
0U
#650000
1!
1K
1L
1U
1Y
1v
0t
1r
0p
1e
0a
0D
1F
0@
1A
0B
1C
1k
10
0/
1.
0-
13
01
0V
1o
0u
1s
0q
1f
0b
#655000
0!
0K
0L
1Z
0U
#660000
1!
1K
1L
0Z
1U
1\
0Y
0v
1t
0r
1p
1g
0c
0E
1G
1@
0A
1B
0C
1l
0k
00
1/
0.
1-
14
02
0[
1V
0o
1u
0s
1q
1_
0d
0l
#665000
0!
0K
0L
0U
#670000
1!
1K
1L
1U
1Y
1v
0t
1r
0p
0e
1a
1D
0F
0@
1A
0B
1C
1k
1]
10
0/
1.
0-
03
11
0V
1o
0u
1s
0q
0f
1b
1l
1{
0i
0J
0,
1y
#675000
0!
0K
0L
1Z
0U
#680000
0)
0$
1!
0T
0h
1K
1L
0l
0]
0{
0j
1i
0Z
1U
1J
1,
0y
0\
0Y
1z
0v
1t
0r
1p
0g
1c
1E
0G
1@
0A
1B
0C
1?
0k
1x
15
00
1/
0.
1-
04
12
1[
1V
0o
1u
0s
1q
0_
1d
1y
#685000
0!
0K
0L
0U
#690000
1$
1!
1h
1K
1L
1j
1U
1Y
1v
0t
1r
0p
1e
0a
0D
1F
0@
1A
0B
1C
1k
1]
10
0/
1.
0-
13
01
0V
1o
0u
1s
0q
1f
0b
1l
1{
0i
0J
0,
0m
#695000
0!
0K
0L
1Z
0U
#700000
1!
1K
1L
0Z
1U
1\
0Y
0v
1t
0r
1p
0n
1g
0c
0E
1G
0>
1@
0A
1B
0C
0l
0]
0k
0O
00
1/
0.
1-
06
14
02
0[
1V
0y
0o
1u
0s
1q
1_
1m
0d
0{
1i
0m
1J
1,
1y
#705000
0!
0K
0L
0U
#710000
1!
1K
1L
1U
1Y
1v
0t
1r
0p
0e
1a
1D
0F
0@
1A
0B
1C
1k
10
0/
1.
0-
03
11
0V
1o
0u
1s
0q
0f
1b
#715000
0!
0K
0L
1Z
0U
#720000
1!
1K
1L
0Z
1U
0\
0Y
0v
1t
0r
1p
0g
1c
1E
0G
1@
0A
1B
0C
1l
0k
00
1/
0.
1-
04
12
1[
1V
0o
1u
0s
1q
0_
1d
0l
#725000
0!
0K
0L
0U
#730000
0(
0$
1!
0S
0h
1K
1L
1k
1]
0j
1U
1Y
1v
0t
1r
0p
1e
0a
0D
1F
0@
1A
0B
1C
0k
0]
10
0/
1.
0-
13
01
0V
1o
0u
1s
0q
1f
0b
#735000
0!
0K
0L
1Z
0U
#740000
1$
1!
1h
1K
1L
1j
0Z
1U
1\
0Y
0v
1t
0r
1p
1g
0c
0E
1G
1@
0A
1B
0C
1k
00
1/
0.
1-
14
02
0[
1V
0o
1u
0s
1q
1_
0d
#745000
0!
0K
0L
0U
#750000
1!
1K
1L
1U
1Y
1v
0t
1r
0p
0e
1a
1D
0F
0@
1A
0B
1C
0k
10
0/
1.
0-
03
11
0V
1o
0u
1s
0q
0f
1b
#755000
0!
0K
0L
1Z
0U
#760000
1!
1K
1L
0Z
1U
0\
0Y
0v
1t
0r
1p
0g
1c
1E
0G
1@
0A
1B
0C
1]
1k
00
1/
0.
1-
04
12
1[
1V
0o
1u
0s
1q
0_
1d
1{
0i
1l
0J
0,
0y
#765000
0!
0K
0L
0U
#770000
1!
1K
1L
1U
1Y
0z
1v
0t
1r
0p
1e
0a
0D
1F
0@
1A
0B
1C
0?
0k
0]
0x
05
10
0/
1.
0-
13
01
0V
1o
1y
0u
1s
0q
1f
0b
0l
0{
1i
1J
1,
0y
#775000
0!
0K
0L
1Z
0U
#780000
1)
0$
1!
1T
0h
1K
1L
0j
0Z
1U
1\
0Y
0v
1t
0r
1p
1g
0c
0E
1G
1@
0A
1B
0C
1]
1k
00
1/
0.
1-
14
02
0[
1V
0o
1u
0s
1q
1_
0d
#785000
0!
0K
0L
0U
#790000
1$
1!
1h
1K
1L
1{
1j
0i
1U
0J
1l
0,
1m
1Y
1v
0t
1r
0p
0e
1a
1D
0F
0@
1A
0B
1C
0k
0]
10
0/
1.
0-
03
11
0V
1y
1o
0u
1s
0q
0f
1b
0l
0{
1i
1J
1,
0y
0m
#795000
0!
0K
0L
1Z
0U
#800000
1!
1K
1L
0Z
1U
0\
0Y
0v
1t
0r
1p
0g
1c
1E
0G
1@
0A
1B
0C
1k
00
1/
0.
1-
04
12
1[
1V
0o
1u
0s
1q
0_
1d
#805000
0!
0K
0L
0U
#810000
1!
1K
1L
1U
1Y
1v
0t
1r
0p
1e
0a
0D
1F
0@
1A
0B
1C
0k
10
0/
1.
0-
13
01
0V
1o
0u
1s
0q
1f
0b
#815000
0!
0K
0L
1Z
0U
#820000
1!
1K
1L
0Z
1U
1\
0Y
0v
1t
0r
1p
1g
0c
0E
1G
1@
0A
1B
0C
1]
1k
00
1/
0.
1-
14
02
0[
1V
0o
1u
0s
1q
1_
0d
1{
0i
1l
0J
0,
1m
#825000
0!
0K
0L
0U
#830000
0)
0$
1!
0T
0h
1K
1L
0l
0]
0{
0j
1i
1U
1J
1,
0m
1Y
1v
0t
1r
0p
1n
0e
1a
1D
0F
1>
0@
1A
0B
1C
0k
1O
10
0/
1.
0-
16
03
11
0V
1o
0u
1s
0q
0f
1b
1m
#835000
0!
0K
0L
1Z
0U
#840000
1!
1K
1L
0Z
1U
0\
0Y
0v
1t
0r
1p
0g
1c
1E
0G
1@
0A
1B
0C
1]
1k
00
1/
0.
1-
04
12
1[
1V
0o
1u
0s
1q
0_
1d
#845000
0!
0K
0L
0U
#850000
1!
1K
1L
1U
1Y
1v
0t
1r
0p
1e
0a
0D
1F
0@
1A
0B
1C
0k
0]
10
0/
1.
0-
13
01
0V
1o
0u
1s
0q
1f
0b
#855000
0!
0K
0L
1Z
0U
#860000
1!
1K
1L
0Z
1U
1\
0Y
0v
1t
0r
1p
1g
0c
0E
1G
1@
0A
1B
0C
1k
00
1/
0.
1-
14
02
0[
1V
0o
1u
0s
1q
1_
0d
#865000
0!
0K
0L
0U
#870000
1!
1K
1L
1U
1Y
1v
0t
1r
0p
0e
1a
1D
0F
0@
1A
0B
1C
0k
10
0/
1.
0-
03
11
0V
1o
0u
1s
0q
0f
1b
#875000
0!
0K
0L
1Z
0U
#880000
1!
1K
1L
0Z
1U
0\
0Y
0v
1t
0r
1p
0g
1c
1E
0G
1@
0A
1B
0C
1]
1k
00
1/
0.
1-
04
12
1[
1V
0o
1u
0s
1q
0_
1d
#885000
0!
0K
0L
0U
#890000
1!
1K
1L
1U
1Y
1v
0t
1r
0p
1e
0a
0D
1F
0@
1A
0B
1C
0k
0]
10
0/
1.
0-
13
01
0V
1o
0u
1s
0q
1f
0b
#895000
0!
0K
0L
1Z
0U
#900000
1!
1K
1L
0Z
1U
1\
0Y
0v
1t
0r
1p
1g
0c
0E
1G
1@
0A
1B
0C
1k
00
1/
0.
1-
14
02
0[
1V
0o
1u
0s
1q
1_
0d
#905000
0!
0K
0L
0U
#910000
1!
1K
1L
1U
1Y
1v
0t
1r
0p
0e
1a
1D
0F
0@
1A
0B
1C
0k
10
0/
1.
0-
03
11
0V
1o
0u
1s
0q
0f
1b
#915000
0!
0K
0L
1Z
0U
#920000
1!
1K
1L
0Z
1U
0\
0Y
0v
1t
0r
1p
0g
1c
1E
0G
1@
0A
1B
0C
1]
1k
00
1/
0.
1-
04
12
1[
1V
0o
1u
0s
1q
0_
1d
#925000
0!
0K
0L
0U
#930000
1!
1K
1L
1U
1Y
1v
0t
1r
0p
1e
0a
0D
1F
0@
1A
0B
1C
0k
0]
10
0/
1.
0-
13
01
0V
1o
0u
1s
0q
1f
0b
#935000
0!
0K
0L
1Z
0U
#940000
1!
1K
1L
0Z
1U
1\
0Y
0v
1t
0r
1p
1g
0c
0E
1G
1@
0A
1B
0C
1k
00
1/
0.
1-
14
02
0[
1V
0o
1u
0s
1q
1_
0d
#945000
0!
0K
0L
0U
#950000
1!
1K
1L
1U
1Y
1v
0t
1r
0p
0e
1a
1D
0F
0@
1A
0B
1C
0k
10
0/
1.
0-
03
11
0V
1o
0u
1s
0q
0f
1b
#955000
0!
0K
0L
1Z
0U
#960000
1!
1K
1L
0Z
1U
0\
0Y
0v
1t
0r
1p
0g
1c
1E
0G
1@
0A
1B
0C
1]
1k
00
1/
0.
1-
04
12
1[
1V
0o
1u
0s
1q
0_
1d
#965000
0!
0K
0L
0U
#970000
1!
1K
1L
1U
1Y
1v
0t
1r
0p
1e
0a
0D
1F
0@
1A
0B
1C
0k
0]
10
0/
1.
0-
13
01
0V
1o
0u
1s
0q
1f
0b
#975000
0!
0K
0L
1Z
0U
#980000
1!
1K
1L
0Z
1U
1\
0Y
0v
1t
0r
1p
1g
0c
0E
1G
1@
0A
1B
0C
1k
00
1/
0.
1-
14
02
0[
1V
0o
1u
0s
1q
1_
0d
#985000
0!
0K
0L
0U
#990000
1!
1K
1L
1U
1Y
1v
0t
1r
0p
0e
1a
1D
0F
0@
1A
0B
1C
0k
10
0/
1.
0-
03
11
0V
1o
0u
1s
0q
0f
1b
#995000
0!
0K
0L
1Z
0U
