lab3/simulation/qsim/lab3.msim.vcd
$comment
	File created using the following command:
		vcd file lab3.msim.vcd -direction
$end
$date
	Wed Mar 18 22:07:16 2020
$end
$version
	ModelSim Version 10.5b
$end
$timescale
	1ps
$end

$scope module lab3_vlg_vec_tst $end
$var reg 1 ! CLK $end
$var reg 1 " D0 $end
$var reg 1 # D1 $end
$var reg 1 $ D2 $end
$var reg 1 % D3 $end
$var reg 1 & EXECUTE $end
$var reg 1 ' F0 $end
$var reg 1 ( F1 $end
$var reg 1 ) F2 $end
$var reg 1 * high $end
$var reg 1 + LOAD_A $end
$var reg 1 , LOAD_B $end
$var reg 1 - low $end
$var reg 1 . R0 $end
$var reg 1 / R1 $end
$var wire 1 0 AP $end
$var wire 1 1 BP $end
$var wire 1 2 C0 $end
$var wire 1 3 C1 $end
$var wire 1 4 FAB $end
$var wire 1 5 Q $end
$var wire 1 6 RA0 $end
$var wire 1 7 RA1 $end
$var wire 1 8 RA2 $end
$var wire 1 9 RA3 $end
$var wire 1 : RB0 $end
$var wire 1 ; RB1 $end
$var wire 1 < RB2 $end
$var wire 1 = RB3 $end
$var wire 1 > SA0 $end
$var wire 1 ? SA1 $end
$var wire 1 @ SB0 $end
$var wire 1 A SB1 $end
$var wire 1 B SHIFT $end

$scope module i1 $end
$var wire 1 C gnd $end
$var wire 1 D vcc $end
$var wire 1 E unknown $end
$var tri1 1 F devclrn $end
$var tri1 1 G devpor $end
$var tri1 1 H devoe $end
$var wire 1 I FAB~output_o $end
$var wire 1 J AP~output_o $end
$var wire 1 K BP~output_o $end
$var wire 1 L SB1~output_o $end
$var wire 1 M SB0~output_o $end
$var wire 1 N SA1~output_o $end
$var wire 1 O SA0~output_o $end
$var wire 1 P C0~output_o $end
$var wire 1 Q C1~output_o $end
$var wire 1 R Q~output_o $end
$var wire 1 S SHIFT~output_o $end
$var wire 1 T RA3~output_o $end
$var wire 1 U RA2~output_o $end
$var wire 1 V RA1~output_o $end
$var wire 1 W RA0~output_o $end
$var wire 1 X RB3~output_o $end
$var wire 1 Y RB2~output_o $end
$var wire 1 Z RB1~output_o $end
$var wire 1 [ RB0~output_o $end
$var wire 1 \ F1~input_o $end
$var wire 1 ] low~input_o $end
$var wire 1 ^ high~input_o $end
$var wire 1 _ F0~input_o $end
$var wire 1 ` CLK~input_o $end
$var wire 1 a CLK~inputclkctrl_outclk $end
$var wire 1 b LOAD_B~input_o $end
$var wire 1 c D0~input_o $end
$var wire 1 d D1~input_o $end
$var wire 1 e D2~input_o $end
$var wire 1 f D3~input_o $end
$var wire 1 g R0~input_o $end
$var wire 1 h R1~input_o $end
$var wire 1 i F2~input_o $end
$var wire 1 j LOAD_A~input_o $end
$var wire 1 k inst1|9~0_combout $end
$var wire 1 l inst1|9~1_combout $end
$var wire 1 m inst2|37~0_combout $end
$var wire 1 n high~inputclkctrl_outclk $end
$var wire 1 o EXECUTE~input_o $end
$var wire 1 p inst10|inst7|5~combout $end
$var wire 1 q inst10|inst|9~q $end
$var wire 1 r inst10|inst10|4~combout $end
$var wire 1 s inst10|inst2|9~q $end
$var wire 1 t inst10|inst|10~0_combout $end
$var wire 1 u inst10|inst|10~q $end
$var wire 1 v inst10|inst11|5~0_combout $end
$var wire 1 w inst2|34~0_combout $end
$var wire 1 x inst2|41~q $end
$var wire 1 y inst2|36~0_combout $end
$var wire 1 z inst2|40~q $end
$var wire 1 { inst2|35~0_combout $end
$var wire 1 | inst2|39~q $end
$var wire 1 } inst2|34~1_combout $end
$var wire 1 ~ inst2|34~2_combout $end
$var wire 1 !! inst2|38~q $end
$var wire 1 "! inst1|10~0_combout $end
$var wire 1 #! inst1|10~1_combout $end
$var wire 1 $! inst3|37~0_combout $end
$var wire 1 %! inst3|34~0_combout $end
$var wire 1 &! inst3|34~1_combout $end
$var wire 1 '! inst3|41~q $end
$var wire 1 (! inst3|36~0_combout $end
$var wire 1 )! inst3|40~q $end
$var wire 1 *! inst3|35~0_combout $end
$var wire 1 +! inst3|39~q $end
$var wire 1 ,! inst3|34~2_combout $end
$var wire 1 -! inst3|34~3_combout $end
$var wire 1 .! inst3|38~q $end
$var wire 1 /! inst|9~1_combout $end
$var wire 1 0! inst|9~0_combout $end
$var wire 1 1! inst|9~2_combout $end
$var wire 1 2! inst9|4~combout $end
$upscope $end
$upscope $end
$enddefinitions $end
#0
$dumpvars
0!
0"
0#
0$
0%
0&
0'
0(
0)
1*
0+
0,
0-
0.
0/
00
01
02
03
04
05
06
07
08
09
0:
0;
0<
0=
0>
0?
0@
0A
0B
0C
1D
xE
1F
1G
1H
0I
0J
0K
0L
0M
0N
0O
0P
0Q
0R
0S
0T
0U
0V
0W
0X
0Y
0Z
0[
0\
0]
1^
0_
0`
0a
0b
0c
0d
0e
0f
0g
0h
0i
0j
0k
0l
0m
1n
0o
0p
0q
0r
0s
0t
0u
1v
0w
0x
0y
0z
0{
0|
0}
0~
0!!
0"!
0#!
0$!
1%!
0&!
0'!
0(!
0)!
0*!
0+!
0,!
0-!
0.!
0/!
00!
01!
02!
$end
#5000
1!
1`
1a
#10000
1#
1"
0!
1d
1c
0`
0a
#15000
1!
1`
1a
#20000
0!
0`
0a
#25000
1!
1`
1a
#30000
1+
0!
0`
0a
1j
1N
1?
1~
1{
1w
1O
1>
#35000
1!
1`
1a
1!!
1|
1V
1W
1/!
16
17
1l
1J
10
#40000
0!
0`
0a
#45000
1!
1`
1a
#50000
0#
0"
0+
0!
0d
0c
0`
0a
0j
0N
1}
0?
0{
0~
0w
1m
0O
0>
1~
#55000
1!
1`
1a
#60000
0!
0`
0a
#65000
1!
1`
1a
#70000
1%
1$
0!
1f
1e
0`
0a
#75000
1!
1`
1a
#80000
0!
0`
0a
#85000
1!
1`
1a
#90000
1+
0!
0`
0a
1j
1N
0}
1?
1y
1w
1O
1>
0~
#95000
1!
1`
1a
0!!
0|
1z
1x
1T
1U
0V
0W
0/!
06
07
18
19
0l
0J
00
#100000
0!
0`
0a
#105000
1!
1`
1a
#110000
0%
0$
0+
0!
0f
0e
0`
0a
0j
0N
0?
0m
1{
0w
0O
0>
#115000
1!
1`
1a
#120000
0!
0`
0a
#125000
1!
1`
1a
#130000
0!
0`
0a
#135000
1!
1`
1a
#140000
0!
0`
0a
#145000
1!
1`
1a
#150000
1+
0!
0`
0a
1j
1N
1?
0{
0y
1w
1O
1>
#155000
1!
1`
1a
0z
0x
0T
0U
08
09
#160000
0!
0`
0a
#165000
1!
1`
1a
#170000
0+
0!
0`
0a
0j
0N
0?
0w
0O
0>
#175000
1!
1`
1a
#180000
0!
0`
0a
#185000
1!
1`
1a
#190000
1#
1"
0!
1d
1c
0`
0a
#195000
1!
1`
1a
#200000
0!
0`
0a
#205000
1!
1`
1a
#210000
1,
0!
0`
0a
1b
1L
1A
1-!
1*!
1&!
1M
1@
#215000
1!
1`
1a
1.!
1+!
1Z
1[
1/!
1:
1;
1#!
1K
11
#220000
0!
0`
0a
#225000
1!
1`
1a
#230000
0#
0"
0,
0!
0d
0c
0`
0a
0b
0L
1,!
0A
0*!
0-!
0&!
1$!
0M
0@
1-!
#235000
1!
1`
1a
#240000
0!
0`
0a
#245000
1!
1`
1a
#250000
1%
1$
0!
1f
1e
0`
0a
#255000
1!
1`
1a
#260000
0!
0`
0a
#265000
1!
1`
1a
#270000
1,
0!
0`
0a
1b
1L
0,!
1A
1(!
1&!
1M
1@
0-!
#275000
1!
1`
1a
0.!
0+!
1)!
1'!
1X
1Y
0Z
0[
0/!
0:
0;
1<
1=
0#!
0K
01
#280000
0!
0`
0a
#285000
1!
1`
1a
#290000
0%
0$
0,
0!
0f
0e
0`
0a
0b
0L
0A
0$!
1*!
0&!
0M
0@
#295000
1!
1`
1a
#300000
0!
0`
0a
#305000
1!
1`
1a
#310000
0!
0`
0a
#315000
1!
1`
1a
#320000
0!
0`
0a
#325000
1!
1`
1a
#330000
1,
0!
0`
0a
1b
1L
1A
0*!
0(!
1&!
1M
1@
#335000
1!
1`
1a
0)!
0'!
0X
0Y
0<
0=
#340000
0!
0`
0a
#345000
1!
1`
1a
#350000
0,
0!
0`
0a
0b
0L
0A
0&!
0M
0@
#355000
1!
1`
1a
#360000
0!
0`
0a
#365000
1!
1`
1a
#370000
0!
0`
0a
#375000
1!
1`
1a
#380000
0!
0`
0a
#385000
1!
1`
1a
#390000
0!
0`
0a
#395000
1!
1`
1a
#400000
1#
1%
1$
0!
1d
1f
1e
0`
0a
#405000
1!
1`
1a
#410000
0!
0`
0a
#415000
1!
1`
1a
#420000
1+
0!
0`
0a
1j
1N
1?
1{
1y
1w
1m
1O
1>
#425000
1!
1`
1a
1|
1z
1x
1T
1U
1V
17
18
19
#430000
0!
0`
0a
#435000
1!
1`
1a
#440000
1"
0%
0+
0!
1c
0f
0`
0a
0j
0N
0?
0m
0w
0O
0>
#445000
1!
1`
1a
#450000
0!
0`
0a
#455000
1!
1`
1a
#460000
1,
0!
0`
0a
1b
1L
1A
1-!
1*!
1(!
1&!
1M
1@
#465000
1!
1`
1a
1.!
1+!
1)!
1Y
1Z
1[
1/!
1:
1;
1<
1#!
1K
11
#470000
0!
0`
0a
#475000
1!
1`
1a
#480000
0#
0$
0"
0,
0!
0d
0e
0c
0`
0a
0b
0L
1,!
0A
0(!
0-!
0&!
1$!
0M
0@
1-!
#485000
1!
1`
1a
#490000
0!
0`
0a
#495000
1!
1`
1a
#500000
1&
0!
1o
0`
0a
0%!
0v
1r
1p
1S
1}
1B
1&!
1w
1O
1M
1@
1>
1~
#505000
1!
1`
1a
0)!
1'!
1!!
0x
1s
1q
1R
1P
0T
1W
1X
0Y
10!
0/!
1%!
0<
1=
16
09
12
15
0*!
1(!
1l
0y
1t
0r
1J
11!
10
1m
1"!
1k
12!
1I
14
#510000
0!
0`
0a
#515000
1!
1`
1a
0+!
1)!
0z
1x
1u
0s
0P
1Q
1T
0U
1Y
0Z
0,!
0;
1<
08
19
13
02
1*!
0{
1y
1r
0-!
#520000
0!
0`
0a
#525000
1!
1`
1a
0.!
1+!
0|
1z
1s
1P
1U
0V
1Z
0[
00!
1/!
1,!
0}
0:
1;
07
18
12
0#!
1{
0t
0r
0K
01!
01
1-!
0~
0$!
0"!
0k
02!
0I
04
#530000
0!
0`
0a
#535000
1!
1`
1a
1.!
0'!
0!!
1|
0u
0s
0P
0Q
1V
0W
0X
1[
1}
1v
1:
0=
06
17
03
02
1#!
0(!
0l
0&!
0M
0J
1K
0S
0}
0B
11
00
0@
1~
0w
1$!
0m
0O
0>
0~
#540000
0!
0`
0a
#545000
1!
1`
1a
#550000
0!
0`
0a
#555000
1!
1`
1a
#560000
0!
0`
0a
#565000
1!
1`
1a
#570000
0!
0`
0a
#575000
1!
1`
1a
#580000
0!
0`
0a
#585000
1!
1`
1a
#590000
0!
0`
0a
#595000
1!
1`
1a
#600000
1.
1%
1#
1$
0&
0!
1g
1f
1d
1e
0o
0`
0a
1k
0#!
0p
0K
01
0$!
#605000
1!
1`
1a
0q
0R
05
#610000
0!
0`
0a
#615000
1!
1`
1a
#620000
1+
0!
0`
0a
1j
1N
1?
1w
1m
1O
1>
#625000
1!
1`
1a
#630000
0!
0`
0a
#635000
1!
1`
1a
#640000
1"
0%
0+
0!
1c
0f
0`
0a
0j
0N
0?
0m
0w
0O
0>
#645000
1!
1`
1a
#650000
0!
0`
0a
#655000
1!
1`
1a
#660000
1,
0!
0`
0a
1b
1L
0,!
1A
1(!
1&!
1M
1@
#665000
1!
1`
1a
#670000
0!
0`
0a
#675000
1!
1`
1a
#680000
0#
0$
0"
0,
0!
0d
0e
0c
0`
0a
0b
0L
1,!
0A
0(!
0-!
0&!
0M
0@
1-!
#685000
1!
1`
1a
#690000
0!
0`
0a
#695000
1!
1`
1a
#700000
1&
0!
1o
0`
0a
0%!
0v
1r
1p
1S
1}
1B
1&!
1w
1O
1M
1@
1>
1~
#705000
1!
1`
1a
0)!
1!!
0x
1s
1q
1R
1P
0T
1W
0Y
10!
0/!
1%!
0<
16
09
12
15
0*!
1l
0y
1t
0r
1J
11!
10
1m
1"!
12!
1I
14
1#!
1K
11
1$!
#710000
0!
0`
0a
#715000
1!
1`
1a
0+!
1'!
0z
1x
1u
0s
0P
1Q
1T
0U
1X
0Z
0,!
0;
1=
08
19
13
02
1(!
0{
1y
1r
0-!
#720000
0!
0`
0a
#725000
1!
1`
1a
0.!
1)!
0|
1z
1s
1P
1U
0V
1Y
0[
00!
1/!
0k
0}
0:
1<
07
18
12
1*!
1{
0t
0r
01!
0~
0"!
02!
0I
04
0#!
0K
01
0$!
#730000
0!
0`
0a
#735000
1!
1`
1a
1+!
0'!
0!!
1|
0u
0s
0P
0Q
1V
0W
0X
1Z
1,!
0/!
1}
1v
1;
0=
06
17
03
02
0(!
0l
0&!
0M
0J
0S
0,!
0}
0B
00
0@
1-!
1~
0w
0m
0O
0>
0-!
0~
#740000
0!
0`
0a
#745000
1!
1`
1a
#750000
0!
0`
0a
#755000
1!
1`
1a
#760000
0!
0`
0a
#765000
1!
1`
1a
#770000
0!
0`
0a
#775000
1!
1`
1a
#780000
0!
0`
0a
#785000
1!
1`
1a
#790000
0!
0`
0a
#795000
1!
1`
1a
#800000
1/
0.
1%
1#
1$
0&
0!
1h
0g
1f
1d
1e
0o
0`
0a
0p
#805000
1!
1`
1a
0q
0R
05
#810000
0!
0`
0a
#815000
1!
1`
1a
#820000
1+
0!
0`
0a
1j
1N
1?
1w
1m
1O
1>
#825000
1!
1`
1a
#830000
0!
0`
0a
#835000
1!
1`
1a
#840000
1"
0%
0+
0!
1c
0f
0`
0a
0j
0N
0?
0m
0w
0O
0>
#845000
1!
1`
1a
#850000
0!
0`
0a
#855000
1!
1`
1a
#860000
1,
0!
0`
0a
1b
1L
1A
1-!
1(!
1&!
1M
1@
#865000
1!
1`
1a
1.!
1[
1/!
1:
1#!
1K
11
#870000
0!
0`
0a
#875000
1!
1`
1a
#880000
0#
0$
0"
0,
0!
0d
0e
0c
0`
0a
0b
0L
1,!
0A
0(!
0-!
0&!
1$!
0M
0@
1-!
#885000
1!
1`
1a
#890000
0!
0`
0a
#895000
1!
1`
1a
#900000
1&
0!
1o
0`
0a
0%!
0v
1r
1p
1S
1}
1B
1&!
1w
1O
1M
1@
1>
1~
#905000
1!
1`
1a
0)!
1'!
1!!
0x
1s
1q
1R
1P
0T
1W
1X
0Y
10!
0/!
1"!
1%!
0<
1=
16
09
12
15
0*!
1(!
0y
1t
0r
11!
1k
12!
1I
14
1l
1J
10
1m
#910000
0!
0`
0a
#915000
1!
1`
1a
0+!
1)!
0z
1x
1u
0s
0P
1Q
1T
0U
1Y
0Z
0,!
0;
1<
08
19
13
02
1*!
0{
1y
1r
0-!
#920000
0!
0`
0a
#925000
1!
1`
1a
0.!
1+!
0|
1z
1s
1P
1U
0V
1Z
0[
00!
1/!
1,!
0}
0:
1;
07
18
12
0#!
1{
0t
0r
0K
01!
01
1-!
0~
0$!
0k
02!
0I
04
0l
0J
00
0m
#930000
0!
0`
0a
#935000
1!
1`
1a
1.!
0'!
0!!
1|
0x
0u
0s
0P
0Q
0T
1V
0W
0X
1[
0"!
1}
1v
1:
0=
06
17
09
03
02
1#!
0(!
0y
0&!
0M
1K
0S
0}
0B
11
0@
1~
0w
1$!
0O
0>
0~
#940000
0!
0`
0a
#945000
1!
1`
1a
#950000
0!
0`
0a
#955000
1!
1`
1a
#960000
0!
0`
0a
#965000
1!
1`
1a
#970000
0!
0`
0a
#975000
1!
1`
1a
#980000
0!
0`
0a
#985000
1!
1`
1a
#990000
0!
0`
0a
#995000
1!
1`
1a
#1000000
1.
1%
1#
1$
0&
0!
1g
1f
1d
1e
0o
0`
0a
1k
0#!
0p
0K
01
1l
0$!
1J
10
1m
#1005000
1!
1`
1a
0q
0R
05
#1010000
0!
0`
0a
#1015000
1!
1`
1a
#1020000
1+
0!
0`
0a
1j
1N
1?
1y
1w
1O
1>
#1025000
1!
1`
1a
1x
1T
19
#1030000
0!
0`
0a
#1035000
1!
1`
1a
#1040000
1"
0%
0+
0!
1c
0f
0`
0a
0j
0N
0?
0w
0O
0>
#1045000
1!
1`
1a
#1050000
0!
0`
0a
#1055000
1!
1`
1a
#1060000
1,
0!
0`
0a
1b
1L
0,!
1A
1(!
1&!
1M
1@
#1065000
1!
1`
1a
#1070000
0!
0`
0a
#1075000
1!
1`
1a
#1080000
0#
0$
0"
0,
0!
0d
0e
0c
0`
0a
0b
0L
1,!
0A
0(!
0-!
0&!
0M
0@
1-!
#1085000
1!
1`
1a
#1090000
0!
0`
0a
#1095000
1!
1`
1a
#1100000
1&
0!
1o
0`
0a
0%!
0v
1r
1p
1S
1}
1B
1&!
1w
1O
1M
1@
1>
1~
#1105000
1!
1`
1a
0)!
1!!
1s
1q
1R
1P
1W
0Y
10!
0/!
1"!
1%!
0<
16
12
15
0*!
1t
0r
11!
1#!
1K
11
12!
1$!
1I
14
#1110000
0!
0`
0a
#1115000
1!
1`
1a
0+!
1'!
1u
0s
0P
1Q
1X
0Z
0,!
0;
1=
13
02
1(!
1r
0-!
#1120000
0!
0`
0a
#1125000
1!
1`
1a
0.!
1)!
1s
1P
1Y
0[
00!
1/!
0k
0:
1<
12
1*!
0t
0r
01!
0l
0J
00
02!
0m
0I
04
#1130000
0!
0`
0a
#1135000
1!
1`
1a
1+!
0x
0u
0s
0P
0Q
0T
1Z
1,!
1v
1;
09
03
02
0y
0&!
0M
0S
0,!
0B
0@
1-!
0w
0O
0>
0-!
#1140000
0!
0`
0a
#1145000
1!
1`
1a
#1150000
0!
0`
0a
#1155000
1!
1`
1a
#1160000
0!
0`
0a
#1165000
1!
1`
1a
#1170000
0!
0`
0a
#1175000
1!
1`
1a
#1180000
0!
0`
0a
#1185000
1!
1`
1a
#1190000
0!
0`
0a
#1195000
1!
1`
1a
#1200000
1'
0.
1%
1#
0&
0!
1_
0g
1f
1d
0o
0`
0a
10!
0#!
0p
0K
11!
01
0$!
1k
12!
1I
14
1l
1J
10
1m
#1205000
1!
1`
1a
0q
0R
05
#1210000
0!
0`
0a
#1215000
1!
1`
1a
#1220000
1+
0!
0`
0a
1j
1N
0}
1?
1w
1O
1>
0~
#1225000
1!
1`
1a
0!!
0z
1x
1T
0U
0W
00!
0"!
06
08
19
01!
0k
02!
0I
04
0l
0J
00
#1230000
0!
0`
0a
#1235000
1!
1`
1a
#1240000
1$
1"
0%
0+
0!
1e
1c
0f
0`
0a
0j
0N
0?
1y
0m
0{
0w
0O
0>
#1245000
1!
1`
1a
#1250000
0!
0`
0a
#1255000
1!
1`
1a
#1260000
1,
0!
0`
0a
1b
1L
1A
1-!
1&!
1M
1@
#1265000
1!
1`
1a
1.!
0'!
0X
1[
10!
1:
0=
1#!
1K
11!
11
1k
12!
1I
14
1l
1J
10
1m
#1270000
0!
0`
0a
#1275000
1!
1`
1a
#1280000
0#
0$
0"
0,
0!
0d
0e
0c
0`
0a
0b
0L
1,!
0A
0(!
0-!
0&!
1$!
0M
0@
1-!
#1285000
1!
1`
1a
#1290000
0!
0`
0a
#1295000
1!
1`
1a
#1300000
1&
0!
1o
0`
0a
0%!
0v
1r
1p
1S
1}
1B
1&!
1w
1O
1M
1@
1>
1~
#1305000
1!
1`
1a
0)!
1'!
1!!
0|
1z
1s
1q
1R
1P
1U
0V
1W
1X
0Y
1"!
0}
1%!
0<
1=
16
07
18
12
15
0*!
1(!
1{
1t
0r
0~
#1310000
0!
0`
0a
#1315000
1!
1`
1a
0+!
1)!
0!!
1|
1u
0s
0P
1Q
1V
0W
1Y
0Z
0,!
0"!
1}
0;
1<
06
17
13
02
1*!
1r
0-!
1~
#1320000
0!
0`
0a
#1325000
1!
1`
1a
0.!
1+!
1!!
1s
1P
1W
1Z
0[
1,!
1"!
0:
1;
16
12
0#!
0t
0r
0K
01
1-!
0$!
#1330000
0!
0`
0a
#1335000
1!
1`
1a
1.!
0'!
0u
0s
0P
0Q
0X
1[
1v
1:
0=
03
02
1#!
0(!
0&!
0M
1K
0S
0B
11
0@
0w
1$!
0O
0>
#1340000
0!
0`
0a
#1345000
1!
1`
1a
#1350000
0!
0`
0a
#1355000
1!
1`
1a
#1360000
0!
0`
0a
#1365000
1!
1`
1a
#1370000
0!
0`
0a
#1375000
1!
1`
1a
#1380000
0!
0`
0a
#1385000
1!
1`
1a
#1390000
0!
0`
0a
#1395000
1!
1`
1a
#1400000
1(
0'
1%
1#
0&
0!
1\
0_
1f
1d
0o
0`
0a
0/!
0p
01!
0k
02!
0I
04
0l
0J
00
0m
#1405000
1!
1`
1a
0q
0R
05
#1410000
0!
0`
0a
#1415000
1!
1`
1a
#1420000
1+
0!
0`
0a
1j
1N
0}
1?
0y
1w
1m
1O
1>
0~
#1425000
1!
1`
1a
0!!
0z
0U
0W
00!
1/!
0"!
06
08
11!
1k
12!
1I
14
1l
1J
10
#1430000
0!
0`
0a
#1435000
1!
1`
1a
#1440000
1$
1"
0%
0+
0!
1e
1c
0f
0`
0a
0j
0N
0?
1y
0{
0w
0O
0>
#1445000
1!
1`
1a
#1450000
0!
0`
0a
#1455000
1!
1`
1a
#1460000
1,
0!
0`
0a
1b
1L
0,!
1A
1(!
1&!
0$!
1M
1@
#1465000
1!
1`
1a
#1470000
0!
0`
0a
#1475000
1!
1`
1a
#1480000
0#
0$
0"
0,
0!
0d
0e
0c
0`
0a
0b
0L
1,!
0A
0(!
0-!
0&!
1$!
0M
0@
1-!
#1485000
1!
1`
1a
#1490000
0!
0`
0a
#1495000
1!
1`
1a
#1500000
1&
0!
1o
0`
0a
0%!
0v
1r
1p
1S
1}
1B
1&!
1w
1O
1M
1@
1>
1~
#1505000
1!
1`
1a
0)!
1'!
1!!
0|
1z
1s
1q
1R
1P
1U
0V
1W
1X
0Y
10!
0/!
1"!
0}
1%!
0<
1=
16
07
18
12
15
0*!
1(!
1{
1t
0r
01!
0~
0k
02!
0I
04
0l
0J
00
0m
#1510000
0!
0`
0a
#1515000
1!
1`
1a
0+!
1)!
0!!
1|
0x
1u
0s
0P
1Q
0T
1V
0W
1Y
0Z
0,!
00!
1/!
0"!
1}
0;
1<
06
17
09
13
02
1*!
0y
1r
11!
0-!
1~
1k
12!
1I
14
1l
1J
10
1m
#1520000
0!
0`
0a
#1525000
1!
1`
1a
0.!
1+!
1!!
0z
1x
1s
1P
1T
0U
1W
1Z
0[
1,!
1"!
0:
1;
16
08
19
12
0#!
0{
1y
0t
0r
0K
01
1-!
0$!
#1530000
0!
0`
0a
#1535000
1!
1`
1a
1.!
0'!
0|
1z
0u
0s
0P
0Q
1U
0V
0X
1[
10!
0/!
0}
1v
1:
0=
07
18
03
02
1#!
0(!
1{
0&!
0M
1K
0S
01!
1}
0B
11
0@
0~
0w
1$!
0O
0k
0>
02!
1~
0I
04
0l
0J
00
0m
#1540000
0!
0`
0a
#1545000
1!
1`
1a
#1550000
0!
0`
0a
#1555000
1!
1`
1a
#1560000
0!
0`
0a
#1565000
1!
1`
1a
#1570000
0!
0`
0a
#1575000
1!
1`
1a
#1580000
0!
0`
0a
#1585000
1!
1`
1a
#1590000
0!
0`
0a
#1595000
1!
1`
1a
#1600000
1'
1%
1#
0&
0!
1_
1f
1d
0o
0`
0a
1/!
0p
11!
1k
12!
1I
14
1l
1J
10
1m
#1605000
1!
1`
1a
0q
0R
05
#1610000
0!
0`
0a
#1615000
1!
1`
1a
#1620000
1+
0!
0`
0a
1j
1N
0}
1?
0y
1w
1O
1>
0~
#1625000
1!
1`
1a
0!!
1|
0z
0U
1V
0W
0"!
06
17
08
#1630000
0!
0`
0a
#1635000
1!
1`
1a
#1640000
1$
1"
0%
0+
0!
1e
1c
0f
0`
0a
0j
0N
0?
1y
0{
0w
0O
0>
#1645000
1!
1`
1a
#1650000
0!
0`
0a
#1655000
1!
1`
1a
#1660000
1,
0!
0`
0a
1b
1L
0,!
1A
1(!
1&!
0$!
1M
1@
#1665000
1!
1`
1a
#1670000
0!
0`
0a
#1675000
1!
1`
1a
#1680000
0#
0$
0"
0,
0!
0d
0e
0c
0`
0a
0b
0L
1,!
0A
0(!
0-!
0&!
1$!
0M
0@
1-!
#1685000
1!
1`
1a
#1690000
0!
0`
0a
#1695000
1!
1`
1a
#1700000
1&
0!
1o
0`
0a
0%!
0v
1r
1p
1S
1}
1B
1&!
1w
1O
1M
1@
1>
1~
#1705000
1!
1`
1a
0)!
1'!
1!!
0|
1z
1s
1q
1R
1P
1U
0V
1W
1X
0Y
1"!
0}
1%!
0<
1=
16
07
18
12
15
0*!
1(!
1{
1t
0r
0~
#1710000
0!
0`
0a
#1715000
1!
1`
1a
0+!
1)!
0!!
1|
1u
0s
0P
1Q
1V
0W
1Y
0Z
0,!
0"!
1}
0;
1<
06
17
13
02
1*!
1r
0-!
1~
#1720000
0!
0`
0a
#1725000
1!
1`
1a
0.!
1+!
1!!
1s
1P
1W
1Z
0[
1,!
1"!
0:
1;
16
12
0#!
0t
0r
0K
01
1-!
0$!
#1730000
0!
0`
0a
#1735000
1!
1`
1a
1.!
0'!
0u
0s
0P
0Q
0X
1[
1v
1:
0=
03
02
1#!
0(!
0&!
0M
1K
0S
0B
11
0@
0w
1$!
0O
0>
#1740000
0!
0`
0a
#1745000
1!
1`
1a
#1750000
0!
0`
0a
#1755000
1!
1`
1a
#1760000
0!
0`
0a
#1765000
1!
1`
1a
#1770000
0!
0`
0a
#1775000
1!
1`
1a
#1780000
0!
0`
0a
#1785000
1!
1`
1a
#1790000
0!
0`
0a
#1795000
1!
1`
1a
#1800000
1)
0(
0'
1%
1#
0&
0!
1i
0\
0_
1f
1d
0o
0`
0a
0k
0/!
02!
0p
0I
04
0l
0J
00
0m
#1805000
1!
1`
1a
0q
0R
05
#1810000
0!
0`
0a
#1815000
1!
1`
1a
#1820000
1+
0!
0`
0a
1j
1N
0}
1?
0y
1w
1m
1O
1>
0~
#1825000
1!
1`
1a
0!!
0z
0U
0W
00!
1/!
0"!
06
08
01!
1k
12!
1I
14
1l
1J
10
#1830000
0!
0`
0a
#1835000
1!
1`
1a
#1840000
1$
1"
0%
0+
0!
1e
1c
0f
0`
0a
0j
0N
0?
1y
0{
0w
0O
0>
#1845000
1!
1`
1a
#1850000
0!
0`
0a
#1855000
1!
1`
1a
#1860000
1,
0!
0`
0a
1b
1L
0,!
1A
1(!
1&!
0$!
1M
1@
#1865000
1!
1`
1a
#1870000
0!
0`
0a
#1875000
1!
1`
1a
#1880000
0#
0$
0"
0,
0!
0d
0e
0c
0`
0a
0b
0L
1,!
0A
0(!
0-!
0&!
1$!
0M
0@
1-!
#1885000
1!
1`
1a
#1890000
0!
0`
0a
#1895000
1!
1`
1a
#1900000
1&
0!
1o
0`
0a
0%!
0v
1r
1p
1S
1}
1B
1&!
1w
1O
1M
1@
1>
1~
#1905000
1!
1`
1a
0)!
1'!
1!!
0|
1z
1s
1q
1R
1P
1U
0V
1W
1X
0Y
10!
0/!
1"!
0}
1%!
0<
1=
16
07
18
12
15
0*!
1(!
1{
1t
0r
11!
0~
0k
02!
0I
04
0l
0J
00
0m
#1910000
0!
0`
0a
#1915000
1!
1`
1a
0+!
1)!
0!!
1|
0x
1u
0s
0P
1Q
0T
1V
0W
1Y
0Z
0,!
00!
1/!
0"!
1}
0;
1<
06
17
09
13
02
1*!
0y
1r
01!
0-!
1~
1k
12!
1I
14
1l
1J
10
1m
#1920000
0!
0`
0a
#1925000
1!
1`
1a
0.!
1+!
1!!
0z
1x
1s
1P
1T
0U
1W
1Z
0[
1,!
1"!
0:
1;
16
08
19
12
0#!
0{
1y
0t
0r
0K
01
1-!
0$!
#1930000
0!
0`
0a
#1935000
1!
1`
1a
1.!
0'!
0|
1z
0u
0s
0P
0Q
1U
0V
0X
1[
10!
0/!
0}
1v
1:
0=
07
18
03
02
1#!
0(!
1{
0&!
0M
1K
0S
11!
1}
0B
11
0@
0~
0w
1$!
0O
0k
0>
02!
1~
0I
04
0l
0J
00
0m
#1940000
0!
0`
0a
#1945000
1!
1`
1a
#1950000
0!
0`
0a
#1955000
1!
1`
1a
#1960000
0!
0`
0a
#1965000
1!
1`
1a
#1970000
0!
0`
0a
#1975000
1!
1`
1a
#1980000
0!
0`
0a
#1985000
1!
1`
1a
#1990000
0!
0`
0a
#1995000
1!
1`
1a
#2000000
1'
1%
1#
0&
0!
1_
1f
1d
0o
0`
0a
1/!
0p
#2005000
1!
1`
1a
0q
0R
05
#2010000
0!
0`
0a
#2015000
1!
1`
1a
#2020000
1+
0!
0`
0a
1j
1N
0}
1?
0y
1w
1m
1O
1>
0~
#2025000
1!
1`
1a
0!!
1|
0z
0U
1V
0W
0"!
06
17
08
#2030000
0!
0`
0a
#2035000
1!
1`
1a
#2040000
1$
1"
0%
0+
0!
1e
1c
0f
0`
0a
0j
0N
0?
1y
0m
0{
0w
0O
0>
#2045000
1!
1`
1a
#2050000
0!
0`
0a
#2055000
1!
1`
1a
#2060000
1,
0!
0`
0a
1b
1L
0,!
1A
1(!
1&!
0$!
1M
1@
#2065000
1!
1`
1a
#2070000
0!
0`
0a
#2075000
1!
1`
1a
#2080000
0#
0$
0"
0,
0!
0d
0e
0c
0`
0a
0b
0L
1,!
0A
0(!
0-!
0&!
1$!
0M
0@
1-!
#2085000
1!
1`
1a
#2090000
0!
0`
0a
#2095000
1!
1`
1a
#2100000
0!
0`
0a
#2105000
1!
1`
1a
#2110000
1&
0!
1o
0`
0a
0%!
0v
1r
1p
1S
1}
1B
1&!
1w
1O
1M
1@
1>
1~
#2115000
1!
1`
1a
0)!
1'!
1!!
0|
1z
0x
1s
1q
1R
1P
0T
1U
0V
1W
1X
0Y
1"!
0}
1%!
0<
1=
16
07
18
09
12
15
0*!
1(!
1{
0y
1t
0r
0~
#2120000
0!
0`
0a
