Lab1/simulation/qsim/Lab1.msim.vcd
$comment
	File created using the following command:
		vcd file Lab1.msim.vcd -direction
$end
$date
	Sun Feb 23 19:24:34 2020
$end
$version
	ModelSim Version 10.5b
$end
$timescale
	1ps
$end

$scope module Lab1_vlg_vec_tst $end
$var reg 1 ! A $end
$var reg 1 " B $end
$var reg 16 # BUS1 [15:0] $end
$var reg 16 $ BUS2 [15:0] $end
$var reg 1 % C $end
$var wire 1 & DelayOUt $end
$var wire 1 ' Left $end
$var wire 1 ( NegB $end
$var wire 1 ) Right $end
$var wire 1 * Z $end

$scope module i1 $end
$var wire 1 + gnd $end
$var wire 1 , vcc $end
$var wire 1 - unknown $end
$var tri1 1 . devclrn $end
$var tri1 1 / devpor $end
$var tri1 1 0 devoe $end
$var wire 1 1 BUS1[15]~input_o $end
$var wire 1 2 BUS1[14]~input_o $end
$var wire 1 3 BUS1[13]~input_o $end
$var wire 1 4 BUS1[12]~input_o $end
$var wire 1 5 BUS1[11]~input_o $end
$var wire 1 6 BUS1[10]~input_o $end
$var wire 1 7 BUS1[9]~input_o $end
$var wire 1 8 BUS1[8]~input_o $end
$var wire 1 9 BUS2[15]~input_o $end
$var wire 1 : BUS2[14]~input_o $end
$var wire 1 ; BUS2[13]~input_o $end
$var wire 1 < BUS2[12]~input_o $end
$var wire 1 = BUS2[11]~input_o $end
$var wire 1 > BUS2[10]~input_o $end
$var wire 1 ? BUS2[9]~input_o $end
$var wire 1 @ BUS2[8]~input_o $end
$var wire 1 A Z~output_o $end
$var wire 1 B Left~output_o $end
$var wire 1 C Right~output_o $end
$var wire 1 D DelayOUt~output_o $end
$var wire 1 E NegB~output_o $end
$var wire 1 F A~input_o $end
$var wire 1 G B~input_o $end
$var wire 1 H BUS1[7]~input_o $end
$var wire 1 I BUS2[7]~input_o $end
$var wire 1 J BUS1[6]~input_o $end
$var wire 1 K BUS2[6]~input_o $end
$var wire 1 L BUS2[4]~input_o $end
$var wire 1 M BUS1[2]~input_o $end
$var wire 1 N BUS2[0]~input_o $end
$var wire 1 O BUS1[0]~input_o $end
$var wire 1 P inst4|inst3|cout~0_combout $end
$var wire 1 Q BUS1[1]~input_o $end
$var wire 1 R BUS2[1]~input_o $end
$var wire 1 S inst4|inst3|cout~1_combout $end
$var wire 1 T BUS2[2]~input_o $end
$var wire 1 U inst4|inst5|cout~0_combout $end
$var wire 1 V BUS1[3]~input_o $end
$var wire 1 W BUS2[3]~input_o $end
$var wire 1 X inst4|inst5|cout~1_combout $end
$var wire 1 Y BUS1[4]~input_o $end
$var wire 1 Z inst4|inst7|cout~0_combout $end
$var wire 1 [ BUS1[5]~input_o $end
$var wire 1 \ BUS2[5]~input_o $end
$var wire 1 ] inst4|inst7|cout~1_combout $end
$var wire 1 ^ inst4|inst9|cout~0_combout $end
$var wire 1 _ inst4|inst9|cout~1_combout $end
$var wire 1 ` C~input_o $end
$var wire 1 a inst3|4~combout $end
$var wire 1 b inst|4~combout $end
$var wire 1 c inst1|4~combout $end
$upscope $end
$upscope $end
$enddefinitions $end
#0
$dumpvars
1!
0"
b1111111111111111 #
b0 $
1%
x&
x'
x(
x)
x*
0+
1,
x-
1.
1/
10
11
12
13
14
15
16
17
18
09
0:
0;
0<
0=
0>
0?
0@
xA
xB
xC
xD
xE
1F
0G
1H
0I
1J
0K
0L
1M
0N
1O
xP
1Q
0R
xS
0T
xU
1V
0W
xX
1Y
xZ
1[
0\
x]
x^
x_
1`
xa
xb
xc
$end
#3948
0b
#4027
1P
#4667
1S
#5161
1U
#5803
1X
#6298
1Z
#6590
1E
1(
#6938
1]
#7299
1^
#7448
1B
1'
#7668
1_
#7669
1c
#8340
1a
#11431
0C
0)
#11468
1D
1&
#11871
1A
1*
#50000
1"
#50669
1G
#54385
1b
#54466
0P
#55133
0S
#55654
0U
#56323
0X
#56844
0Z
#57102
0E
0(
#57510
0]
#57879
0^
#57947
0B
0'
#58258
0_
#58259
0c
#61940
1C
1)
#61976
0D
0&
#100000
0"
#100775
0G
#104723
0b
#104788
0a
#104802
1P
#105442
1S
#105936
1U
#106578
1X
#107073
1Z
#107365
1E
1(
#107713
1]
#108074
1^
#108223
1B
1'
#108257
0A
0*
#108443
1_
#108444
1c
#109115
1a
#112206
0C
0)
#112243
1D
1&
#112646
1A
1*
#150000
1"
#150669
1G
#154385
1b
#154466
0P
#155133
0S
#155654
0U
#156323
0X
#156844
0Z
#157102
0E
0(
#157510
0]
#157879
0^
#157947
0B
0'
#158258
0_
#158259
0c
#161940
1C
1)
#161976
0D
0&
#200000
0"
#200775
0G
#204723
0b
#204788
0a
#204802
1P
#205442
1S
#205936
1U
#206578
1X
#207073
1Z
#207365
1E
1(
#207713
1]
#208074
1^
#208223
1B
1'
#208257
0A
0*
#208443
1_
#208444
1c
#209115
1a
#212206
0C
0)
#212243
1D
1&
#212646
1A
1*
#250000
1"
#250669
1G
#254385
1b
#254466
0P
#255133
0S
#255654
0U
#256323
0X
#256844
0Z
#257102
0E
0(
#257510
0]
#257879
0^
#257947
0B
0'
#258258
0_
#258259
0c
#261940
1C
1)
#261976
0D
0&
#300000
0"
#300775
0G
#304723
0b
#304788
0a
#304802
1P
#305442
1S
#305936
1U
#306578
1X
#307073
1Z
#307365
1E
1(
#307713
1]
#308074
1^
#308223
1B
1'
#308257
0A
0*
#308443
1_
#308444
1c
#309115
1a
#312206
0C
0)
#312243
1D
1&
#312646
1A
1*
#350000
1"
#350669
1G
#354385
1b
#354466
0P
#355133
0S
#355654
0U
#356323
0X
#356844
0Z
#357102
0E
0(
#357510
0]
#357879
0^
#357947
0B
0'
#358258
0_
#358259
0c
#361940
1C
1)
#361976
0D
0&
#400000
0"
#400775
0G
#404723
0b
#404788
0a
#404802
1P
#405442
1S
#405936
1U
#406578
1X
#407073
1Z
#407365
1E
1(
#407713
1]
#408074
1^
#408223
1B
1'
#408257
0A
0*
#408443
1_
#408444
1c
#409115
1a
#412206
0C
0)
#412243
1D
1&
#412646
1A
1*
#450000
1"
#450669
1G
#454385
1b
#454466
0P
#455133
0S
#455654
0U
#456323
0X
#456844
0Z
#457102
0E
0(
#457510
0]
#457879
0^
#457947
0B
0'
#458258
0_
#458259
0c
#461940
1C
1)
#461976
0D
0&
#500000
0"
#500775
0G
#504723
0b
#504788
0a
#504802
1P
#505442
1S
#505936
1U
#506578
1X
#507073
1Z
#507365
1E
1(
#507713
1]
#508074
1^
#508223
1B
1'
#508257
0A
0*
#508443
1_
#508444
1c
#509115
1a
#512206
0C
0)
#512243
1D
1&
#512646
1A
1*
#550000
1"
#550669
1G
#554385
1b
#554466
0P
#555133
0S
#555654
0U
#556323
0X
#556844
0Z
#557102
0E
0(
#557510
0]
#557879
0^
#557947
0B
0'
#558258
0_
#558259
0c
#561940
1C
1)
#561976
0D
0&
#600000
0"
#600775
0G
#604723
0b
#604788
0a
#604802
1P
#605442
1S
#605936
1U
#606578
1X
#607073
1Z
#607365
1E
1(
#607713
1]
#608074
1^
#608223
1B
1'
#608257
0A
0*
#608443
1_
#608444
1c
#609115
1a
#612206
0C
0)
#612243
1D
1&
#612646
1A
1*
#650000
1"
#650669
1G
#654385
1b
#654466
0P
#655133
0S
#655654
0U
#656323
0X
#656844
0Z
#657102
0E
0(
#657510
0]
#657879
0^
#657947
0B
0'
#658258
0_
#658259
0c
#661940
1C
1)
#661976
0D
0&
#700000
0"
#700775
0G
#704723
0b
#704788
0a
#704802
1P
#705442
1S
#705936
1U
#706578
1X
#707073
1Z
#707365
1E
1(
#707713
1]
#708074
1^
#708223
1B
1'
#708257
0A
0*
#708443
1_
#708444
1c
#709115
1a
#712206
0C
0)
#712243
1D
1&
#712646
1A
1*
#750000
1"
#750669
1G
#754385
1b
#754466
0P
#755133
0S
#755654
0U
#756323
0X
#756844
0Z
#757102
0E
0(
#757510
0]
#757879
0^
#757947
0B
0'
#758258
0_
#758259
0c
#761940
1C
1)
#761976
0D
0&
#800000
0"
#800775
0G
#804723
0b
#804788
0a
#804802
1P
#805442
1S
#805936
1U
#806578
1X
#807073
1Z
#807365
1E
1(
#807713
1]
#808074
1^
#808223
1B
1'
#808257
0A
0*
#808443
1_
#808444
1c
#809115
1a
#812206
0C
0)
#812243
1D
1&
#812646
1A
1*
#850000
1"
#850669
1G
#854385
1b
#854466
0P
#855133
0S
#855654
0U
#856323
0X
#856844
0Z
#857102
0E
0(
#857510
0]
#857879
0^
#857947
0B
0'
#858258
0_
#858259
0c
#861940
1C
1)
#861976
0D
0&
#900000
0"
#900775
0G
#904723
0b
#904788
0a
#904802
1P
#905442
1S
#905936
1U
#906578
1X
#907073
1Z
#907365
1E
1(
#907713
1]
#908074
1^
#908223
1B
1'
#908257
0A
0*
#908443
1_
#908444
1c
#909115
1a
#912206
0C
0)
#912243
1D
1&
#912646
1A
1*
#950000
1"
#950669
1G
#954385
1b
#954466
0P
#955133
0S
#955654
0U
#956323
0X
#956844
0Z
#957102
0E
0(
#957510
0]
#957879
0^
#957947
0B
0'
#958258
0_
#958259
0c
#961940
1C
1)
#961976
0D
0&
